…
Going further

``` r
## if you have time to do more ...

## is every package in .Library either base or recommended?
## study package naming style (all lower case, contains '.', etc
## use `fields` argument to installed.packages() to get more info and use it!

inst_pkg %>% filter(is.na(Priority))
```

    ## # A tibble: 145 x 16
    ##    Package  LibPath Version Priority Depends Imports LinkingTo Suggests   
    ##    <chr>    <chr>   <chr>   <chr>    <chr>   <chr>   <chr>     <chr>      
    ##  1 assertt~ C:/Use~ 0.2.0   <NA>     <NA>    tools   <NA>      testthat   
    ##  2 backpor~ C:/Use~ 1.1.2   <NA>     R (>= ~ utils   <NA>      <NA>       
    ##  3 base64e~ C:/Use~ 0.1-3   <NA>     R (>= ~ <NA>    <NA>      <NA>       
    ##  4 BH       C:/Use~ 1.65.0~ <NA>     <NA>    <NA>    <NA>      <NA>       
    ##  5 bindr    C:/Use~ 0.1     <NA>     <NA>    <NA>    <NA>      testthat   
    ##  6 bindrcpp C:/Use~ 0.2     <NA>     <NA>    Rcpp, ~ Rcpp, pl~ testthat   
    ##  7 bitops   C:/Use~ 1.0-6   <NA>     <NA>    <NA>    <NA>      <NA>       
    ##  8 brew     C:/Use~ 1.0-6   <NA>     <NA>    <NA>    <NA>      <NA>       
    ##  9 broom    C:/Use~ 0.4.3   <NA>     <NA>    plyr, ~ <NA>      "knitr, bo~
    ## 10 callr    C:/Use~ 1.0.0   <NA>     <NA>    <NA>    <NA>      covr, test~
    ## # ... with 135 more rows, and 8 more variables: Enhances <chr>, License
    ## #   <chr>, License_is_FOSS <chr>, License_restricts_use <chr>, OS_type
    ## #   <chr>, MD5sum <chr>, NeedsCompilation <chr>, Built <chr>
…
